-------------------------------------------------------------------------- 
                   Lithosphere and Mantle Evolution Model                   
     Compiled: Date: Mar  9 2020 - Time: 17:19:17 	    
-------------------------------------------------------------------------- 
        STAGGERED-GRID FINITE DIFFERENCE CANONICAL IMPLEMENTATION           
-------------------------------------------------------------------------- 
Parsing input file : ./t3_SubductionMATLABinput/Subduction_MATLAB_Particles.dat 
   Adding PETSc option: -snes_ksp_ew
   Adding PETSc option: -snes_monitor
   Adding PETSc option: -snes_atol 1e-4
   Adding PETSc option: -snes_rtol 1e-3
   Adding PETSc option: -snes_stol 1e-16
   Adding PETSc option: -snes_max_it 50
   Adding PETSc option: -snes_max_funcs 500000
   Adding PETSc option: -snes_max_linear_solve_fail 10000
   Adding PETSc option: -snes_PicardSwitchToNewton_rtol 5e-2
   Adding PETSc option: -snes_NewtonSwitchToPicard_it 20
   Adding PETSc option: -snes_NewtonSwitchToPicard_rtol 1.1
   Adding PETSc option: -snes_linesearch_monitor
   Adding PETSc option: -snes_linesearch_type l2
   Adding PETSc option: -snes_linesearch_maxstep 1.0
   Adding PETSc option: -js_ksp_type fgmres
   Adding PETSc option: -js_ksp_max_it 50
   Adding PETSc option: -js_ksp_monitor
   Adding PETSc option: -js_ksp_rtol 1e-5
   Adding PETSc option: -js_ksp_atol 1e-5
   Adding PETSc option: -pcmat_type mono
   Adding PETSc option: -pcmat_type mono
   Adding PETSc option: -pcmat_pgamma 1e2
   Adding PETSc option: -jp_type user
   Adding PETSc option: -jp_pc_type lu
   Adding PETSc option: -objects_dump
Finished parsing input file : ./t3_SubductionMATLABinput/Subduction_MATLAB_Particles.dat 
--------------------------------------------------------------------------
Scaling parameters:
   Temperature : 1000. [C/K] 
   Length      : 1e+06 [m] 
   Viscosity   : 1e+22 [Pa*s] 
   Stress      : 1e+10 [Pa] 
--------------------------------------------------------------------------
Time stepping parameters:
   Simulation end time          : 1. [Myr] 
   Maximum number of steps      : 20 
   Time step                    : 0.001 [Myr] 
   Minimum time step            : 0.001 [Myr] 
   Maximum time step            : 0.05 [Myr] 
   Time step increase factor    : 0.1 
   CFL criterion                : 0.5 
   CFLMAX (fixed time steps)    : 0.8 
   Output every [n] steps       : 1 
   Output [n] initial steps     : 1 
--------------------------------------------------------------------------
Material parameters: 
   Phase ID : 4
   (dens)   : rho = 100. [kg/m^3]  
   (elast)  : G = 5e+10 [Pa]  K = 8e+10 [Pa]  E = 1.24138e+11 [Pa]  nu = 0.241379 [ ]  Vp = 38297.1 [m/s]  Vs = 22360.7 [m/s]  
   (diff)   : eta = 1e+18 [Pa*s]  Bd = 5e-19 [1/Pa/s]  
   (plast)  : ch = 2e+07 [Pa]  fr = 30. [deg]  
   (temp)   : k = 3. [W/m/k]  

   Phase ID : 0
   (dens)   : rho = 3300. [kg/m^3]  
   (elast)  : G = 5e+10 [Pa]  K = 8e+10 [Pa]  E = 1.24138e+11 [Pa]  nu = 0.241379 [ ]  Vp = 6666.67 [m/s]  Vs = 3892.49 [m/s]  
   (diff)   : eta = 2.5e+23 [Pa*s]  Bd = 2e-24 [1/Pa/s]  
   (plast)  : ch = 2e+07 [Pa]  fr = 30. [deg]  
   (temp)   : k = 3. [W/m/k]  

   Phase ID : 1
   (dens)   : rho = 3300. [kg/m^3]  
   (elast)  : G = 5e+10 [Pa]  K = 8e+10 [Pa]  E = 1.24138e+11 [Pa]  nu = 0.241379 [ ]  Vp = 6666.67 [m/s]  Vs = 3892.49 [m/s]  
   (diff)   : Bd = 1.5e-09 [1/Pa/s]  Ed = 375000. [J/mol]  Vd = 3e-06 [m^3/mol]  
   (disl)   : Bn = 1.4806e-16 [1/Pa^n/s]  En = 532000. [J/mol]  Vn = 1.5e-05 [m^3/mol]  n = 3.5 [ ]  
   (plast)  : ch = 2e+07 [Pa]  fr = 30. [deg]  
   (temp)   : alpha = 1e-05 [1/K]  k = 3. [W/m/k]  

   Phase ID : 2
   (dens)   : rho = 3300. [kg/m^3]  
   (elast)  : G = 5e+10 [Pa]  K = 8e+10 [Pa]  E = 1.24138e+11 [Pa]  nu = 0.241379 [ ]  Vp = 6666.67 [m/s]  Vs = 3892.49 [m/s]  
   (diff)   : eta = 2.5e+19 [Pa*s]  Bd = 2e-20 [1/Pa/s]  
   (plast)  : ch = 2e+07 [Pa]  fr = 30. [deg]  
   (temp)   : alpha = 1e-05 [1/K]  

   Phase ID : 3
   (dens)   : rho = 3300. [kg/m^3]  
   (elast)  : G = 5e+10 [Pa]  K = 8e+10 [Pa]  E = 1.24138e+11 [Pa]  nu = 0.241379 [ ]  Vp = 6666.67 [m/s]  Vs = 3892.49 [m/s]  
   (diff)   : Bd = 1.5e-09 [1/Pa/s]  Ed = 375000. [J/mol]  Vd = 3e-06 [m^3/mol]  
   (disl)   : Bn = 1.4806e-16 [1/Pa^n/s]  En = 532000. [J/mol]  Vn = 1.5e-05 [m^3/mol]  n = 3.5 [ ]  
   (plast)  : ch = 2e+07 [Pa]  fr = 30. [deg]  
   (temp)   : alpha = 1e-05 [1/K]  k = 3. [W/m/k]  

--------------------------------------------------------------------------
Grid parameters:
   Total number of cpu                  : 1 
   Processor grid  [nx, ny, nz]         : [1, 1, 1]
   Fine grid cells [nx, ny, nz]         : [128, 2, 32]
   Number of cells                      :  8192
   Number of faces                      :  28992
   Maximum cell aspect ratio            :  1.25000
   Lower coordinate bounds [bx, by, bz] : [-2000., -25., -660.]
   Upper coordinate bounds [ex, ey, ez] : [2000., 25., 140.]
--------------------------------------------------------------------------
Free surface parameters: 
   Sticky air phase ID       : 4 
   Initial surface level     : 0. [km] 
   Erosion model             : none
   Sedimentation model       : none
   Correct marker phases     @ 
   Maximum surface slope     : 30. [deg]
--------------------------------------------------------------------------
Boundary condition parameters: 
   No-slip boundary mask [lt rt ft bk bm tp]  : 0 0 0 0 0 0 
   Open top boundary                          @ 
   Top boundary temperature                   : 0. [C] 
   Bottom boundary temperature                : 1465. [C] 
--------------------------------------------------------------------------
Solution parameters & controls:
   Gravity [gx, gy, gz]                    : [0., 0., -10.] [m/s^2] 
   Surface stabilization (FSSA)            :  1. 
   Compute initial guess                   @ 
   Use lithostatic pressure for creep      @ 
   Limit pressure at first iteration       @ 
   Minimum viscosity                       : 5e+18 [Pa*s] 
   Maximum viscosity                       : 2.5e+24 [Pa*s] 
   Reference viscosity (initial guess)     : 1e+22 [Pa*s] 
   Universal gas constant                  : 8.31446 [J/mol/K] 
   Maximum melt fraction (viscosity)       : 0.15    
   Rheology iteration number               : 25  
   Rheology iteration tolerance            : 1e-06    
   Ground water level type                 : none 
--------------------------------------------------------------------------
Advection parameters:
   Advection scheme              : Euler 1-st order (basic implementation)
   Marker setup scheme           : binary files (MATLAB)
   Velocity interpolation scheme : STAG (linear)
   Marker control type           : subgrid 
   Markers per cell [nx, ny, nz] : [3, 3, 3] 
   Marker distribution type      : uniform
--------------------------------------------------------------------------
Loading markers in parallel from file(s) <./markers_p1/mdb> ... done (0.0212543 sec)
--------------------------------------------------------------------------
Output parameters:
   Output file name                        : SubductionModel 
   Write .pvd file                         : yes 
   Phase                                   @ 
   Density                                 @ 
   Total effective viscosity               @ 
   Creep effective viscosity               @ 
   Velocity                                @ 
   Pressure                                @ 
   Temperature                             @ 
   Deviatoric stress tensor                @ 
   Deviatoric stress second invariant      @ 
   Deviatoric strain rate tensor           @ 
   Deviatoric strain rate second invariant @ 
   Accumulated Plastic Strain (APS)        @ 
   Momentum residual                       @ 
   Continuity residual                     @ 
--------------------------------------------------------------------------
Surface output parameters:
   Write .pvd file : yes 
   Velocity        @ 
   Topography      @ 
   Amplitude       @ 
--------------------------------------------------------------------------
AVD output parameters:
   Write .pvd file       : yes 
   AVD refinement factor : 2 
--------------------------------------------------------------------------
Preconditioner parameters: 
   Matrix type                   : monolithic
   Penalty parameter (pgamma)    : 1.000000e+02
   Preconditioner type           : user-defined
--------------------------------------------------------------------------
Solver parameters specified: 
   Outermost Krylov solver       : fgmres 
   Solver type                   : serial direct/lu 
   Solver package                : petsc default
--------------------------------------------------------------------------
Initializing pressure with lithostatic pressure ... done (0.00256705 sec)
--------------------------------------------------------------------------
============================== INITIAL GUESS =============================
--------------------------------------------------------------------------
  0 SNES Function norm 5.239711961163e+02 
  0 PICARD ||F||/||F0||=1.000000e+00 
    Residual norms for js_ solve.
    0 KSP Residual norm 5.239711961163e+02 
    1 KSP Residual norm 5.659547319673e-01 
  Linear js_ solve converged due to CONVERGED_RTOL iterations 1
      Line search: lambdas = [1., 0.5, 0.], fnorms = [44.1101, 272.398, 523.971]
      Line search terminated: lambda = 1., fnorms = 44.1101
  1 SNES Function norm 4.411006615952e+01 
  1 PICARD ||F||/||F0||=8.418414e-02 
    Residual norms for js_ solve.
    0 KSP Residual norm 4.411006615952e+01 
    1 KSP Residual norm 1.820313141803e-02 
  Linear js_ solve converged due to CONVERGED_RTOL iterations 1
      Line search: lambdas = [1., 0.5, 0.], fnorms = [0.705761, 22.3975, 44.1101]
      Line search terminated: lambda = 1., fnorms = 0.705761
  2 SNES Function norm 7.057610471677e-01 
  2 MMFD   ||F||/||F0||=1.346946e-03 
    Residual norms for js_ solve.
    0 KSP Residual norm 7.057610471677e-01 
    1 KSP Residual norm 1.509742087470e-03 
    2 KSP Residual norm 3.035468768946e-06 
  Linear js_ solve converged due to CONVERGED_ATOL iterations 2
      Line search: lambdas = [1., 0.5, 0.], fnorms = [3.12301e-06, 0.35288, 0.705761]
      Line search terminated: lambda = 1., fnorms = 3.10833e-06
  3 SNES Function norm 3.108331806927e-06 
--------------------------------------------------------------------------
SNES Convergence Reason : ||F|| < atol 
Number of iterations    : 3
SNES solution time      : 3.16868 (sec)
--------------------------------------------------------------------------
Residual summary: 
   Continuity: 
      |Div|_inf = 3.090237806117e-09 
      |Div|_2   = 8.369690932699e-08 
   Momentum: 
      |mRes|_2  = 3.107204764628e-06 
--------------------------------------------------------------------------
Saving output ... done (0.0985794 sec)
--------------------------------------------------------------------------
================================= STEP 1 =================================
--------------------------------------------------------------------------
Current time        : 0.00000 [Myr] 
Tentative time step : 0.00100 [Myr] 
--------------------------------------------------------------------------
  0 SNES Function norm 3.807966804463e-01 
  0 PICARD ||F||/||F0||=1.000000e+00 
    Residual norms for js_ solve.
    0 KSP Residual norm 3.807966804463e-01 
    1 KSP Residual norm 3.538747805187e-02 
  Linear js_ solve converged due to CONVERGED_RTOL iterations 1
      Line search: lambdas = [1., 0.5, 0.], fnorms = [0.122237, 0.211827, 0.380797]
      Line search terminated: lambda = 0.963149, fnorms = 0.121983
  1 SNES Function norm 1.219833716375e-01 
  1 PICARD ||F||/||F0||=3.203373e-01 
    Residual norms for js_ solve.
    0 KSP Residual norm 1.219833716375e-01 
    1 KSP Residual norm 2.830794860715e-03 
  Linear js_ solve converged due to CONVERGED_RTOL iterations 1
      Line search: lambdas = [1., 0.5, 0.], fnorms = [0.063854, 0.0829447, 0.121983]
      Line search terminated: lambda = 1., fnorms = 0.0638544
  2 SNES Function norm 6.385437772819e-02 
  2 PICARD ||F||/||F0||=1.676863e-01 
    Residual norms for js_ solve.
    0 KSP Residual norm 6.385437772819e-02 
    1 KSP Residual norm 9.810862076173e-04 
  Linear js_ solve converged due to CONVERGED_RTOL iterations 1
      Line search: lambdas = [1., 0.5, 0.], fnorms = [0.0345544, 0.0470727, 0.0638544]
      Line search terminated: lambda = 1., fnorms = 0.0345546
  3 SNES Function norm 3.455460319115e-02 
  3 PICARD ||F||/||F0||=9.074292e-02 
    Residual norms for js_ solve.
    0 KSP Residual norm 3.455460319115e-02 
    1 KSP Residual norm 5.562620768471e-04 
  Linear js_ solve converged due to CONVERGED_RTOL iterations 1
      Line search: lambdas = [1., 0.5, 0.], fnorms = [0.0178813, 0.0256888, 0.0345546]
      Line search terminated: lambda = 1., fnorms = 0.0178815
  4 SNES Function norm 1.788145012261e-02 
  4 MMFD   ||F||/||F0||=4.695800e-02 
    Residual norms for js_ solve.
    0 KSP Residual norm 1.788145012261e-02 
    1 KSP Residual norm 5.749888808233e-03 
  Linear js_ solve converged due to CONVERGED_RTOL iterations 1
      Line search: lambdas = [1., 0.5, 0.], fnorms = [0.00429737, 0.0102758, 0.0178815]
      Line search terminated: lambda = 1., fnorms = 0.00429744
  5 SNES Function norm 4.297436725794e-03 
  5 MMFD   ||F||/||F0||=1.128538e-02 
    Residual norms for js_ solve.
    0 KSP Residual norm 4.297436725794e-03 
    1 KSP Residual norm 1.185580602482e-03 
    2 KSP Residual norm 3.091214495761e-04 
  Linear js_ solve converged due to CONVERGED_RTOL iterations 2
      Line search: lambdas = [1., 0.5, 0.], fnorms = [0.000809644, 0.00223495, 0.00429744]
      Line search terminated: lambda = 0.987557, fnorms = 0.000809209
  6 SNES Function norm 8.092090455147e-04 
  6 MMFD   ||F||/||F0||=2.125042e-03 
    Residual norms for js_ solve.
    0 KSP Residual norm 8.092090455147e-04 
    1 KSP Residual norm 1.711243084170e-04 
    2 KSP Residual norm 5.252879952960e-05 
  Linear js_ solve converged due to CONVERGED_RTOL iterations 2
      Line search: lambdas = [1., 0.5, 0.], fnorms = [8.2926e-05, 0.000408096, 0.000809209]
      Line search terminated: lambda = 0.992939, fnorms = 8.2704e-05
  7 SNES Function norm 8.270404372306e-05 
--------------------------------------------------------------------------
SNES Convergence Reason : ||F|| < atol 
Number of iterations    : 7
SNES solution time      : 9.69287 (sec)
--------------------------------------------------------------------------
Residual summary: 
   Continuity: 
      |Div|_inf = 2.041705752725e-07 
      |Div|_2   = 1.239519233663e-06 
   Momentum: 
      |mRes|_2  = 8.269475461125e-05 
--------------------------------------------------------------------------
Actual time step : 0.00100 [Myr] 
--------------------------------------------------------------------------
Performing marker control (subgrid algorithm)
Marker control [0]: (subgrid) cloned 0 markers and merged 0 markers in 1.0597e-02 s
--------------------------------------------------------------------------
Saving output ... done (0.105783 sec)
--------------------------------------------------------------------------
================================= STEP 2 =================================
--------------------------------------------------------------------------
Current time        : 0.00100 [Myr] 
Tentative time step : 0.00110 [Myr] 
--------------------------------------------------------------------------
  0 SNES Function norm 3.320628726825e-01 
  0 PICARD ||F||/||F0||=1.000000e+00 
    Residual norms for js_ solve.
    0 KSP Residual norm 3.320628726825e-01 
    1 KSP Residual norm 3.680526076310e-03 
  Linear js_ solve converged due to CONVERGED_RTOL iterations 1
      Line search: lambdas = [1., 0.5, 0.], fnorms = [0.0458738, 0.166412, 0.332063]
      Line search terminated: lambda = 0.974521, fnorms = 0.0450739
  1 SNES Function norm 4.507385550020e-02 
  1 PICARD ||F||/||F0||=1.357389e-01 
    Residual norms for js_ solve.
    0 KSP Residual norm 4.507385550020e-02 
    1 KSP Residual norm 4.980048896073e-04 
  Linear js_ solve converged due to CONVERGED_RTOL iterations 1
      Line search: lambdas = [1., 0.5, 0.], fnorms = [0.0154055, 0.0294908, 0.0450739]
      Line search terminated: lambda = 1., fnorms = 0.0154056
  2 SNES Function norm 1.540557641100e-02 
  2 MMFD   ||F||/||F0||=4.639355e-02 
    Residual norms for js_ solve.
    0 KSP Residual norm 1.540557641100e-02 
    1 KSP Residual norm 7.303445148953e-03 
    2 KSP Residual norm 1.662286458664e-03 
  Linear js_ solve converged due to CONVERGED_RTOL iterations 2
      Line search: lambdas = [1., 0.5, 0.], fnorms = [0.00761495, 0.00879945, 0.0154056]
      Line search terminated: lambda = 0.819212, fnorms = 0.00691597
  3 SNES Function norm 6.915974728629e-03 
  3 MMFD   ||F||/||F0||=2.082731e-02 
    Residual norms for js_ solve.
    0 KSP Residual norm 6.915974728629e-03 
    1 KSP Residual norm 1.688846816014e-03 
  Linear js_ solve converged due to CONVERGED_RTOL iterations 1
      Line search: lambdas = [1., 0.5, 0.], fnorms = [0.0013441, 0.00374505, 0.00691597]
      Line search terminated: lambda = 1., fnorms = 0.00134411
  4 SNES Function norm 1.344112578787e-03 
  4 MMFD   ||F||/||F0||=4.047765e-03 
    Residual norms for js_ solve.
    0 KSP Residual norm 1.344112578787e-03 
    1 KSP Residual norm 5.082771154518e-04 
    2 KSP Residual norm 1.067709820065e-04 
  Linear js_ solve converged due to CONVERGED_RTOL iterations 2
      Line search: lambdas = [1., 0.5, 0.], fnorms = [0.000368865, 0.000694606, 0.00134411]
      Line search terminated: lambda = 0.927151, fnorms = 0.00035404
  5 SNES Function norm 3.540395846369e-04 
  5 MMFD   ||F||/||F0||=1.066182e-03 
    Residual norms for js_ solve.
    0 KSP Residual norm 3.540395846369e-04 
    1 KSP Residual norm 7.437970679731e-05 
    2 KSP Residual norm 2.143640565482e-05 
  Linear js_ solve converged due to CONVERGED_RTOL iterations 2
      Line search: lambdas = [1., 0.5, 0.], fnorms = [3.24883e-05, 0.000177361, 0.00035404]
      Line search terminated: lambda = 0.989436, fnorms = 3.22658e-05
  6 SNES Function norm 3.226582895260e-05 
--------------------------------------------------------------------------
SNES Convergence Reason : ||F|| < atol 
Number of iterations    : 6
SNES solution time      : 8.79671 (sec)
--------------------------------------------------------------------------
Residual summary: 
   Continuity: 
      |Div|_inf = 1.366554982091e-07 
      |Div|_2   = 4.612552777067e-07 
   Momentum: 
      |mRes|_2  = 3.226253185302e-05 
--------------------------------------------------------------------------
Actual time step : 0.00110 [Myr] 
--------------------------------------------------------------------------
Performing marker control (subgrid algorithm)
Marker control [0]: (subgrid) cloned 0 markers and merged 0 markers in 1.0540e-02 s
--------------------------------------------------------------------------
Saving output ... done (0.10288 sec)
--------------------------------------------------------------------------
================================= STEP 3 =================================
--------------------------------------------------------------------------
Current time        : 0.00210 [Myr] 
Tentative time step : 0.00121 [Myr] 
--------------------------------------------------------------------------
  0 SNES Function norm 1.099406618097e-01 
  0 PICARD ||F||/||F0||=1.000000e+00 
    Residual norms for js_ solve.
    0 KSP Residual norm 1.099406618097e-01 
    1 KSP Residual norm 1.571281084242e-03 
  Linear js_ solve converged due to CONVERGED_RTOL iterations 1
      Line search: lambdas = [1., 0.5, 0.], fnorms = [0.0140105, 0.0542391, 0.109941]
      Line search terminated: lambda = 0.964516, fnorms = 0.0134365
  1 SNES Function norm 1.343645295310e-02 
  1 PICARD ||F||/||F0||=1.222155e-01 
    Residual norms for js_ solve.
    0 KSP Residual norm 1.343645295310e-02 
    1 KSP Residual norm 1.393289617528e-04 
  Linear js_ solve converged due to CONVERGED_RTOL iterations 1
      Line search: lambdas = [1., 0.5, 0.], fnorms = [0.00652086, 0.00977726, 0.0134365]
      Line search terminated: lambda = 1., fnorms = 0.0065209
  2 SNES Function norm 6.520901677074e-03 
  2 PICARD ||F||/||F0||=5.931292e-02 
    Residual norms for js_ solve.
    0 KSP Residual norm 6.520901677074e-03 
    1 KSP Residual norm 7.956281878408e-05 
  Linear js_ solve converged due to CONVERGED_RTOL iterations 1
      Line search: lambdas = [1., 0.5, 0.], fnorms = [0.00304694, 0.00476319, 0.0065209]
      Line search terminated: lambda = 1., fnorms = 0.00304696
  3 SNES Function norm 3.046964055579e-03 
  3 MMFD   ||F||/||F0||=2.771462e-02 
    Residual norms for js_ solve.
    0 KSP Residual norm 3.046964055579e-03 
    1 KSP Residual norm 9.881612780373e-04 
    2 KSP Residual norm 2.250901996117e-04 
  Linear js_ solve converged due to CONVERGED_RTOL iterations 2
      Line search: lambdas = [1., 0.5, 0.], fnorms = [0.000925006, 0.00164397, 0.00304696]
      Line search terminated: lambda = 0.945066, fnorms = 0.000906973
  4 SNES Function norm 9.069731821641e-04 
  4 MMFD   ||F||/||F0||=8.249661e-03 
    Residual norms for js_ solve.
    0 KSP Residual norm 9.069731821641e-04 
    1 KSP Residual norm 1.506393263360e-04 
    2 KSP Residual norm 3.999787643635e-05 
  Linear js_ solve converged due to CONVERGED_RTOL iterations 2
      Line search: lambdas = [1., 0.5, 0.], fnorms = [5.5211e-05, 0.000454575, 0.000906973]
      Line search terminated: lambda = 0.996853, fnorms = 5.51421e-05
  5 SNES Function norm 5.514211307645e-05 
--------------------------------------------------------------------------
SNES Convergence Reason : ||F|| < atol 
Number of iterations    : 5
SNES solution time      : 7.00031 (sec)
--------------------------------------------------------------------------
Residual summary: 
   Continuity: 
      |Div|_inf = 2.736892165151e-07 
      |Div|_2   = 8.992718773718e-07 
   Momentum: 
      |mRes|_2  = 5.513477980936e-05 
--------------------------------------------------------------------------
Actual time step : 0.00121 [Myr] 
--------------------------------------------------------------------------
Performing marker control (subgrid algorithm)
Marker control [0]: (subgrid) cloned 0 markers and merged 0 markers in 1.0544e-02 s
--------------------------------------------------------------------------
Saving output ... done (0.102962 sec)
--------------------------------------------------------------------------
================================= STEP 4 =================================
--------------------------------------------------------------------------
Current time        : 0.00331 [Myr] 
Tentative time step : 0.00133 [Myr] 
--------------------------------------------------------------------------
  0 SNES Function norm 8.135729736006e-02 
  0 PICARD ||F||/||F0||=1.000000e+00 
    Residual norms for js_ solve.
    0 KSP Residual norm 8.135729736006e-02 
    1 KSP Residual norm 1.067234790343e-03 
  Linear js_ solve converged due to CONVERGED_RTOL iterations 1
      Line search: lambdas = [1., 0.5, 0.], fnorms = [0.00935709, 0.0402264, 0.0813573]
      Line search terminated: lambda = 0.970534, fnorms = 0.00903349
  1 SNES Function norm 9.033485655884e-03 
  1 PICARD ||F||/||F0||=1.110347e-01 
    Residual norms for js_ solve.
    0 KSP Residual norm 9.033485655884e-03 
    1 KSP Residual norm 9.104339467228e-05 
  Linear js_ solve converged due to CONVERGED_RTOL iterations 1
      Line search: lambdas = [1., 0.5, 0.], fnorms = [0.00457523, 0.00669243, 0.00903349]
      Line search terminated: lambda = 1., fnorms = 0.00457525
  2 SNES Function norm 4.575254530105e-03 
  2 PICARD ||F||/||F0||=5.623656e-02 
    Residual norms for js_ solve.
    0 KSP Residual norm 4.575254530105e-03 
    1 KSP Residual norm 4.751765128623e-05 
  Linear js_ solve converged due to CONVERGED_RTOL iterations 1
      Line search: lambdas = [1., 0.5, 0.], fnorms = [0.0021951, 0.00337365, 0.00457525]
      Line search terminated: lambda = 1., fnorms = 0.00219511
  3 SNES Function norm 2.195110927067e-03 
  3 MMFD   ||F||/||F0||=2.698112e-02 
    Residual norms for js_ solve.
    0 KSP Residual norm 2.195110927067e-03 
    1 KSP Residual norm 6.046986948975e-04 
  Linear js_ solve converged due to CONVERGED_RTOL iterations 1
      Line search: lambdas = [1., 0.5, 0.], fnorms = [0.000366348, 0.00121034, 0.00219511]
      Line search terminated: lambda = 1., fnorms = 0.000366352
  4 SNES Function norm 3.663523149539e-04 
  4 MMFD   ||F||/||F0||=4.503005e-03 
    Residual norms for js_ solve.
    0 KSP Residual norm 3.663523149539e-04 
    1 KSP Residual norm 1.047855237439e-04 
    2 KSP Residual norm 2.488552915141e-05 
  Linear js_ solve converged due to CONVERGED_RTOL iterations 2
      Line search: lambdas = [1., 0.5, 0.], fnorms = [8.09871e-05, 0.000187932, 0.000366352]
      Line search terminated: lambda = 0.955025, fnorms = 7.91734e-05
  5 SNES Function norm 7.917340634005e-05 
--------------------------------------------------------------------------
SNES Convergence Reason : ||F|| < atol 
Number of iterations    : 5
SNES solution time      : 6.93418 (sec)
--------------------------------------------------------------------------
Residual summary: 
   Continuity: 
      |Div|_inf = 3.785555258194e-07 
      |Div|_2   = 1.069899460748e-06 
   Momentum: 
      |mRes|_2  = 7.916617703685e-05 
--------------------------------------------------------------------------
Actual time step : 0.00133 [Myr] 
--------------------------------------------------------------------------
Performing marker control (subgrid algorithm)
Marker control [0]: (subgrid) cloned 0 markers and merged 0 markers in 1.0501e-02 s
--------------------------------------------------------------------------
Saving output ... done (0.103685 sec)
--------------------------------------------------------------------------
================================= STEP 5 =================================
--------------------------------------------------------------------------
Current time        : 0.00464 [Myr] 
Tentative time step : 0.00146 [Myr] 
--------------------------------------------------------------------------
  0 SNES Function norm 7.081831306517e-02 
  0 PICARD ||F||/||F0||=1.000000e+00 
    Residual norms for js_ solve.
    0 KSP Residual norm 7.081831306517e-02 
    1 KSP Residual norm 8.095741033212e-04 
  Linear js_ solve converged due to CONVERGED_RTOL iterations 1
      Line search: lambdas = [1., 0.5, 0.], fnorms = [0.00738406, 0.0350205, 0.0708183]
      Line search terminated: lambda = 0.973913, fnorms = 0.00714113
  1 SNES Function norm 7.141132220825e-03 
  1 PICARD ||F||/||F0||=1.008374e-01 
    Residual norms for js_ solve.
    0 KSP Residual norm 7.141132220825e-03 
    1 KSP Residual norm 6.915516461755e-05 
  Linear js_ solve converged due to CONVERGED_RTOL iterations 1
      Line search: lambdas = [1., 0.5, 0.], fnorms = [0.0036254, 0.00529941, 0.00714113]
      Line search terminated: lambda = 1., fnorms = 0.00362541
  2 SNES Function norm 3.625414674040e-03 
  2 PICARD ||F||/||F0||=5.119318e-02 
    Residual norms for js_ solve.
    0 KSP Residual norm 3.625414674040e-03 
    1 KSP Residual norm 3.302914374722e-05 
  Linear js_ solve converged due to CONVERGED_RTOL iterations 1
      Line search: lambdas = [1., 0.5, 0.], fnorms = [0.00174903, 0.00267798, 0.00362541]
      Line search terminated: lambda = 1., fnorms = 0.00174904
  3 SNES Function norm 1.749035824054e-03 
  3 MMFD   ||F||/||F0||=2.469751e-02 
    Residual norms for js_ solve.
    0 KSP Residual norm 1.749035824054e-03 
    1 KSP Residual norm 4.855444040324e-04 
  Linear js_ solve converged due to CONVERGED_RTOL iterations 1
      Line search: lambdas = [1., 0.5, 0.], fnorms = [0.000280007, 0.000949804, 0.00174904]
      Line search terminated: lambda = 1., fnorms = 0.000280009
  4 SNES Function norm 2.800088969600e-04 
  4 MMFD   ||F||/||F0||=3.953905e-03 
    Residual norms for js_ solve.
    0 KSP Residual norm 2.800088969600e-04 
    1 KSP Residual norm 7.808520659488e-05 
    2 KSP Residual norm 2.145691681709e-05 
  Linear js_ solve converged due to CONVERGED_RTOL iterations 2
      Line search: lambdas = [1., 0.5, 0.], fnorms = [5.22865e-05, 0.000142868, 0.000280009]
      Line search terminated: lambda = 0.969231, fnorms = 5.1531e-05
  5 SNES Function norm 5.153099253951e-05 
--------------------------------------------------------------------------
SNES Convergence Reason : ||F|| < atol 
Number of iterations    : 5
SNES solution time      : 6.93429 (sec)
--------------------------------------------------------------------------
Residual summary: 
   Continuity: 
      |Div|_inf = 4.151944584645e-07 
      |Div|_2   = 9.795829277696e-07 
   Momentum: 
      |mRes|_2  = 5.152168096438e-05 
--------------------------------------------------------------------------
Actual time step : 0.00146 [Myr] 
--------------------------------------------------------------------------
Performing marker control (subgrid algorithm)
Marker control [0]: (subgrid) cloned 0 markers and merged 0 markers in 1.0569e-02 s
--------------------------------------------------------------------------
Saving output ... done (0.103598 sec)
--------------------------------------------------------------------------
================================= STEP 6 =================================
--------------------------------------------------------------------------
Current time        : 0.00611 [Myr] 
Tentative time step : 0.00161 [Myr] 
--------------------------------------------------------------------------
  0 SNES Function norm 6.390919301886e-02 
  0 PICARD ||F||/||F0||=1.000000e+00 
    Residual norms for js_ solve.
    0 KSP Residual norm 6.390919301886e-02 
    1 KSP Residual norm 6.559996067546e-04 
  Linear js_ solve converged due to CONVERGED_RTOL iterations 1
      Line search: lambdas = [1., 0.5, 0.], fnorms = [0.00625307, 0.0316042, 0.0639092]
      Line search terminated: lambda = 0.975728, fnorms = 0.00605091
  1 SNES Function norm 6.050907094470e-03 
  1 PICARD ||F||/||F0||=9.467976e-02 
    Residual norms for js_ solve.
    0 KSP Residual norm 6.050907094470e-03 
    1 KSP Residual norm 5.841247295480e-05 
  Linear js_ solve converged due to CONVERGED_RTOL iterations 1
      Line search: lambdas = [1., 0.5, 0.], fnorms = [0.00304168, 0.00447678, 0.00605091]
      Line search terminated: lambda = 1., fnorms = 0.0030417
  2 SNES Function norm 3.041696917585e-03 
  2 MMFD   ||F||/||F0||=4.759404e-02 
    Residual norms for js_ solve.
    0 KSP Residual norm 3.041696917585e-03 
    1 KSP Residual norm 8.277244306353e-04 
  Linear js_ solve converged due to CONVERGED_RTOL iterations 1
      Line search: lambdas = [1., 0.5, 0.], fnorms = [0.000552689, 0.00165842, 0.0030417]
      Line search terminated: lambda = 1., fnorms = 0.000552694
  3 SNES Function norm 5.526939601700e-04 
  3 MMFD   ||F||/||F0||=8.648114e-03 
    Residual norms for js_ solve.
    0 KSP Residual norm 5.526939601700e-04 
    1 KSP Residual norm 1.808696289018e-04 
    2 KSP Residual norm 5.389686318738e-05 
  Linear js_ solve converged due to CONVERGED_RTOL iterations 2
      Line search: lambdas = [1., 0.5, 0.], fnorms = [0.000105581, 0.000282935, 0.000552694]
      Line search terminated: lambda = 0.970124, fnorms = 0.00010416
  4 SNES Function norm 1.041604595165e-04 
  4 MMFD   ||F||/||F0||=1.629820e-03 
    Residual norms for js_ solve.
    0 KSP Residual norm 1.041604595165e-04 
    1 KSP Residual norm 2.234285519872e-05 
    2 KSP Residual norm 7.569417908825e-06 
  Linear js_ solve converged due to CONVERGED_ATOL iterations 2
      Line search: lambdas = [1., 0.5, 0.], fnorms = [9.82714e-06, 5.26524e-05, 0.00010416]
      Line search terminated: lambda = 0.997685, fnorms = 9.82361e-06
  5 SNES Function norm 9.823611390370e-06 
--------------------------------------------------------------------------
SNES Convergence Reason : ||F|| < atol 
Number of iterations    : 5
SNES solution time      : 7.09445 (sec)
--------------------------------------------------------------------------
Residual summary: 
   Continuity: 
      |Div|_inf = 4.432222938292e-08 
      |Div|_2   = 1.566492544910e-07 
   Momentum: 
      |mRes|_2  = 9.822362330930e-06 
--------------------------------------------------------------------------
Actual time step : 0.00161 [Myr] 
--------------------------------------------------------------------------
Performing marker control (subgrid algorithm)
Marker control [0]: (subgrid) cloned 0 markers and merged 0 markers in 1.0533e-02 s
--------------------------------------------------------------------------
Saving output ... done (0.101807 sec)
--------------------------------------------------------------------------
================================= STEP 7 =================================
--------------------------------------------------------------------------
Current time        : 0.00772 [Myr] 
Tentative time step : 0.00177 [Myr] 
--------------------------------------------------------------------------
  0 SNES Function norm 5.871843159421e-02 
  0 PICARD ||F||/||F0||=1.000000e+00 
    Residual norms for js_ solve.
    0 KSP Residual norm 5.871843159421e-02 
    1 KSP Residual norm 5.529361664693e-04 
  Linear js_ solve converged due to CONVERGED_RTOL iterations 1
      Line search: lambdas = [1., 0.5, 0.], fnorms = [0.00541876, 0.0289995, 0.0587184]
      Line search terminated: lambda = 0.976039, fnorms = 0.0052262
  1 SNES Function norm 5.226202831188e-03 
  1 PICARD ||F||/||F0||=8.900447e-02 
    Residual norms for js_ solve.
    0 KSP Residual norm 5.226202831188e-03 
    1 KSP Residual norm 5.144167762291e-05 
  Linear js_ solve converged due to CONVERGED_RTOL iterations 1
      Line search: lambdas = [1., 0.5, 0.], fnorms = [0.00257171, 0.00383372, 0.0052262]
      Line search terminated: lambda = 1., fnorms = 0.00257172
  2 SNES Function norm 2.571716538635e-03 
  2 MMFD   ||F||/||F0||=4.379743e-02 
    Residual norms for js_ solve.
    0 KSP Residual norm 2.571716538635e-03 
    1 KSP Residual norm 6.099340149754e-04 
  Linear js_ solve converged due to CONVERGED_RTOL iterations 1
      Line search: lambdas = [1., 0.5, 0.], fnorms = [0.00046951, 0.00138153, 0.00257172]
      Line search terminated: lambda = 1., fnorms = 0.000469513
  3 SNES Function norm 4.695129490227e-04 
  3 MMFD   ||F||/||F0||=7.996006e-03 
    Residual norms for js_ solve.
    0 KSP Residual norm 4.695129490227e-04 
    1 KSP Residual norm 1.506319869535e-04 
    2 KSP Residual norm 4.864358300588e-05 
  Linear js_ solve converged due to CONVERGED_RTOL iterations 2
      Line search: lambdas = [1., 0.5, 0.], fnorms = [8.72041e-05, 0.000242646, 0.000469513]
      Line search terminated: lambda = 0.982438, fnorms = 8.6772e-05
  4 SNES Function norm 8.677198889072e-05 
--------------------------------------------------------------------------
SNES Convergence Reason : ||F|| < atol 
Number of iterations    : 4
SNES solution time      : 5.29168 (sec)
--------------------------------------------------------------------------
Residual summary: 
   Continuity: 
      |Div|_inf = 3.783377672641e-07 
      |Div|_2   = 3.044430029062e-06 
   Momentum: 
      |mRes|_2  = 8.671856492038e-05 
--------------------------------------------------------------------------
Actual time step : 0.00177 [Myr] 
--------------------------------------------------------------------------
Performing marker control (subgrid algorithm)
Marker control [0]: (subgrid) cloned 0 markers and merged 0 markers in 1.0499e-02 s
--------------------------------------------------------------------------
Saving output ... done (0.103564 sec)
--------------------------------------------------------------------------
================================= STEP 8 =================================
--------------------------------------------------------------------------
Current time        : 0.00949 [Myr] 
Tentative time step : 0.00195 [Myr] 
--------------------------------------------------------------------------
  0 SNES Function norm 5.427420102724e-02 
  0 PICARD ||F||/||F0||=1.000000e+00 
    Residual norms for js_ solve.
    0 KSP Residual norm 5.427420102724e-02 
    1 KSP Residual norm 4.826864784422e-04 
  Linear js_ solve converged due to CONVERGED_RTOL iterations 1
      Line search: lambdas = [1., 0.5, 0.], fnorms = [0.00476935, 0.026756, 0.0542742]
      Line search terminated: lambda = 0.975531, fnorms = 0.00457415
  1 SNES Function norm 4.574150832975e-03 
  1 PICARD ||F||/||F0||=8.427855e-02 
    Residual norms for js_ solve.
    0 KSP Residual norm 4.574150832975e-03 
    1 KSP Residual norm 4.694508203254e-05 
  Linear js_ solve converged due to CONVERGED_RTOL iterations 1
      Line search: lambdas = [1., 0.5, 0.], fnorms = [0.00221961, 0.00333477, 0.00457415]
      Line search terminated: lambda = 1., fnorms = 0.00221962
  2 SNES Function norm 2.219622799211e-03 
  2 MMFD   ||F||/||F0||=4.089646e-02 
    Residual norms for js_ solve.
    0 KSP Residual norm 2.219622799211e-03 
    1 KSP Residual norm 5.295536061971e-04 
  Linear js_ solve converged due to CONVERGED_RTOL iterations 1
      Line search: lambdas = [1., 0.5, 0.], fnorms = [0.000412546, 0.00119637, 0.00221962]
      Line search terminated: lambda = 1., fnorms = 0.000412549
  3 SNES Function norm 4.125494708610e-04 
  3 MMFD   ||F||/||F0||=7.601208e-03 
    Residual norms for js_ solve.
    0 KSP Residual norm 4.125494708610e-04 
    1 KSP Residual norm 1.410985378497e-04 
    2 KSP Residual norm 4.381629165320e-05 
  Linear js_ solve converged due to CONVERGED_RTOL iterations 2
      Line search: lambdas = [1., 0.5, 0.], fnorms = [8.11488e-05, 0.000211508, 0.000412549]
      Line search terminated: lambda = 0.968474, fnorms = 8.00229e-05
  4 SNES Function norm 8.002292986902e-05 
--------------------------------------------------------------------------
SNES Convergence Reason : ||F|| < atol 
Number of iterations    : 4
SNES solution time      : 5.57053 (sec)
--------------------------------------------------------------------------
Residual summary: 
   Continuity: 
      |Div|_inf = 3.873311171693e-07 
      |Div|_2   = 2.669843304565e-06 
   Momentum: 
      |mRes|_2  = 7.997837983824e-05 
--------------------------------------------------------------------------
Actual time step : 0.00195 [Myr] 
--------------------------------------------------------------------------
Performing marker control (subgrid algorithm)
Marker control [0]: (subgrid) cloned 0 markers and merged 0 markers in 1.0603e-02 s
--------------------------------------------------------------------------
Saving output ... done (0.103338 sec)
--------------------------------------------------------------------------
================================= STEP 9 =================================
--------------------------------------------------------------------------
Current time        : 0.01144 [Myr] 
Tentative time step : 0.00214 [Myr] 
--------------------------------------------------------------------------
  0 SNES Function norm 5.037048713468e-02 
  0 PICARD ||F||/||F0||=1.000000e+00 
    Residual norms for js_ solve.
    0 KSP Residual norm 5.037048713468e-02 
    1 KSP Residual norm 4.315019451179e-04 
  Linear js_ solve converged due to CONVERGED_RTOL iterations 1
      Line search: lambdas = [1., 0.5, 0.], fnorms = [0.00429885, 0.0248025, 0.0503705]
      Line search terminated: lambda = 0.975105, fnorms = 0.00410538
  1 SNES Function norm 4.105378418338e-03 
  1 PICARD ||F||/||F0||=8.150365e-02 
    Residual norms for js_ solve.
    0 KSP Residual norm 4.105378418338e-03 
    1 KSP Residual norm 4.350160576702e-05 
  Linear js_ solve converged due to CONVERGED_RTOL iterations 1
      Line search: lambdas = [1., 0.5, 0.], fnorms = [0.00195613, 0.00297217, 0.00410538]
      Line search terminated: lambda = 1., fnorms = 0.00195614
  2 SNES Function norm 1.956144935484e-03 
  2 MMFD   ||F||/||F0||=3.883514e-02 
    Residual norms for js_ solve.
    0 KSP Residual norm 1.956144935484e-03 
    1 KSP Residual norm 4.564779474976e-04 
  Linear js_ solve converged due to CONVERGED_RTOL iterations 1
      Line search: lambdas = [1., 0.5, 0.], fnorms = [0.000371562, 0.0010295, 0.00195614]
      Line search terminated: lambda = 0.99984, fnorms = 0.000371545
  3 SNES Function norm 3.715446845638e-04 
  3 MMFD   ||F||/||F0||=7.376238e-03 
    Residual norms for js_ solve.
    0 KSP Residual norm 3.715446845638e-04 
    1 KSP Residual norm 1.280724715406e-04 
    2 KSP Residual norm 4.045348444334e-05 
  Linear js_ solve converged due to CONVERGED_RTOL iterations 2
      Line search: lambdas = [1., 0.5, 0.], fnorms = [6.9711e-05, 0.000190888, 0.000371545]
      Line search terminated: lambda = 0.97547, fnorms = 6.90661e-05
  4 SNES Function norm 6.906610748624e-05 
--------------------------------------------------------------------------
SNES Convergence Reason : ||F|| < atol 
Number of iterations    : 4
SNES solution time      : 5.52224 (sec)
--------------------------------------------------------------------------
Residual summary: 
   Continuity: 
      |Div|_inf = 4.204146506774e-07 
      |Div|_2   = 2.335053000347e-06 
   Momentum: 
      |mRes|_2  = 6.902662334771e-05 
--------------------------------------------------------------------------
Actual time step : 0.00214 [Myr] 
--------------------------------------------------------------------------
Performing marker control (subgrid algorithm)
Marker control [0]: (subgrid) cloned 0 markers and merged 0 markers in 1.0564e-02 s
--------------------------------------------------------------------------
Saving output ... done (0.103813 sec)
--------------------------------------------------------------------------
================================ STEP 10 =================================
--------------------------------------------------------------------------
Current time        : 0.01358 [Myr] 
Tentative time step : 0.00236 [Myr] 
--------------------------------------------------------------------------
  0 SNES Function norm 4.702921447870e-02 
  0 PICARD ||F||/||F0||=1.000000e+00 
    Residual norms for js_ solve.
    0 KSP Residual norm 4.702921447870e-02 
    1 KSP Residual norm 3.929149688999e-04 
  Linear js_ solve converged due to CONVERGED_RTOL iterations 1
      Line search: lambdas = [1., 0.5, 0.], fnorms = [0.00390999, 0.0231445, 0.0470292]
      Line search terminated: lambda = 0.975135, fnorms = 0.00372485
  1 SNES Function norm 3.724852461382e-03 
  1 PICARD ||F||/||F0||=7.920295e-02 
    Residual norms for js_ solve.
    0 KSP Residual norm 3.724852461382e-03 
    1 KSP Residual norm 4.067491031311e-05 
  Linear js_ solve converged due to CONVERGED_RTOL iterations 1
      Line search: lambdas = [1., 0.5, 0.], fnorms = [0.00174311, 0.00267928, 0.00372485]
      Line search terminated: lambda = 1., fnorms = 0.00174312
  2 SNES Function norm 1.743120752570e-03 
  2 MMFD   ||F||/||F0||=3.706464e-02 
    Residual norms for js_ solve.
    0 KSP Residual norm 1.743120752570e-03 
    1 KSP Residual norm 3.969361010623e-04 
  Linear js_ solve converged due to CONVERGED_RTOL iterations 1
      Line search: lambdas = [1., 0.5, 0.], fnorms = [0.000341222, 0.000920863, 0.00174312]
      Line search terminated: lambda = 1., fnorms = 0.000341223
  3 SNES Function norm 3.412231491459e-04 
  3 MMFD   ||F||/||F0||=7.255557e-03 
    Residual norms for js_ solve.
    0 KSP Residual norm 3.412231491459e-04 
    1 KSP Residual norm 1.245024675275e-04 
    2 KSP Residual norm 3.837569465807e-05 
  Linear js_ solve converged due to CONVERGED_RTOL iterations 2
      Line search: lambdas = [1., 0.5, 0.], fnorms = [6.60791e-05, 0.000176053, 0.000341223]
      Line search terminated: lambda = 0.976392, fnorms = 6.55629e-05
  4 SNES Function norm 6.556289243434e-05 
--------------------------------------------------------------------------
SNES Convergence Reason : ||F|| < atol 
Number of iterations    : 4
SNES solution time      : 5.02689 (sec)
--------------------------------------------------------------------------
Residual summary: 
   Continuity: 
      |Div|_inf = 5.489797094320e-07 
      |Div|_2   = 2.037931264723e-06 
   Momentum: 
      |mRes|_2  = 6.553121165152e-05 
--------------------------------------------------------------------------
Actual time step : 0.00236 [Myr] 
--------------------------------------------------------------------------
Performing marker control (subgrid algorithm)
Marker control [0]: (subgrid) cloned 0 markers and merged 0 markers in 1.0573e-02 s
--------------------------------------------------------------------------
Saving output ... done (0.104205 sec)
--------------------------------------------------------------------------
================================ STEP 11 =================================
--------------------------------------------------------------------------
Current time        : 0.01594 [Myr] 
Tentative time step : 0.00259 [Myr] 
--------------------------------------------------------------------------
  0 SNES Function norm 4.357073486791e-02 
  0 PICARD ||F||/||F0||=1.000000e+00 
    Residual norms for js_ solve.
    0 KSP Residual norm 4.357073486791e-02 
    1 KSP Residual norm 3.633445548376e-04 
  Linear js_ solve converged due to CONVERGED_RTOL iterations 1
      Line search: lambdas = [1., 0.5, 0.], fnorms = [0.00356782, 0.021443, 0.0435707]
      Line search terminated: lambda = 0.975446, fnorms = 0.00339824
  1 SNES Function norm 3.398235354599e-03 
  1 PICARD ||F||/||F0||=7.799353e-02 
    Residual norms for js_ solve.
    0 KSP Residual norm 3.398235354599e-03 
    1 KSP Residual norm 3.865590092021e-05 
  Linear js_ solve converged due to CONVERGED_RTOL iterations 1
      Line search: lambdas = [1., 0.5, 0.], fnorms = [0.00155885, 0.00242919, 0.00339824]
      Line search terminated: lambda = 1., fnorms = 0.00155886
  2 SNES Function norm 1.558855970891e-03 
  2 MMFD   ||F||/||F0||=3.577759e-02 
    Residual norms for js_ solve.
    0 KSP Residual norm 1.558855970891e-03 
    1 KSP Residual norm 3.659219230688e-04 
  Linear js_ solve converged due to CONVERGED_RTOL iterations 1
      Line search: lambdas = [1., 0.5, 0.], fnorms = [0.000312902, 0.000825398, 0.00155886]
      Line search terminated: lambda = 1., fnorms = 0.000312903
  3 SNES Function norm 3.129030257253e-04 
  3 MMFD   ||F||/||F0||=7.181495e-03 
    Residual norms for js_ solve.
    0 KSP Residual norm 3.129030257253e-04 
    1 KSP Residual norm 1.194038349691e-04 
    2 KSP Residual norm 3.618547293470e-05 
  Linear js_ solve converged due to CONVERGED_RTOL iterations 2
      Line search: lambdas = [1., 0.5, 0.], fnorms = [6.4753e-05, 0.00016133, 0.000312903]
      Line search terminated: lambda = 0.968139, fnorms = 6.39351e-05
  4 SNES Function norm 6.393509901422e-05 
--------------------------------------------------------------------------
SNES Convergence Reason : ||F|| < atol 
Number of iterations    : 4
SNES solution time      : 5.54422 (sec)
--------------------------------------------------------------------------
Residual summary: 
   Continuity: 
      |Div|_inf = 5.723283468516e-07 
      |Div|_2   = 1.783710282247e-06 
   Momentum: 
      |mRes|_2  = 6.391021251402e-05 
--------------------------------------------------------------------------
Actual time step : 0.00259 [Myr] 
--------------------------------------------------------------------------
Performing marker control (subgrid algorithm)
Marker control [0]: (subgrid) cloned 0 markers and merged 0 markers in 1.0507e-02 s
--------------------------------------------------------------------------
Saving output ... done (0.104542 sec)
--------------------------------------------------------------------------
================================ STEP 12 =================================
--------------------------------------------------------------------------
Current time        : 0.01853 [Myr] 
Tentative time step : 0.00285 [Myr] 
--------------------------------------------------------------------------
  0 SNES Function norm 4.072387336351e-02 
  0 PICARD ||F||/||F0||=1.000000e+00 
    Residual norms for js_ solve.
    0 KSP Residual norm 4.072387336351e-02 
    1 KSP Residual norm 3.376061504401e-04 
  Linear js_ solve converged due to CONVERGED_RTOL iterations 1
      Line search: lambdas = [1., 0.5, 0.], fnorms = [0.00330774, 0.0200352, 0.0407239]
      Line search terminated: lambda = 0.9753, fnorms = 0.00314575
  1 SNES Function norm 3.145746489616e-03 
  1 PICARD ||F||/||F0||=7.724576e-02 
    Residual norms for js_ solve.
    0 KSP Residual norm 3.145746489616e-03 
    1 KSP Residual norm 3.694729517522e-05 
  Linear js_ solve converged due to CONVERGED_RTOL iterations 1
      Line search: lambdas = [1., 0.5, 0.], fnorms = [0.00140603, 0.00222945, 0.00314575]
      Line search terminated: lambda = 1., fnorms = 0.00140604
  2 SNES Function norm 1.406040288584e-03 
  2 MMFD   ||F||/||F0||=3.452619e-02 
    Residual norms for js_ solve.
    0 KSP Residual norm 1.406040288584e-03 
    1 KSP Residual norm 3.363283499875e-04 
  Linear js_ solve converged due to CONVERGED_RTOL iterations 1
      Line search: lambdas = [1., 0.5, 0.], fnorms = [0.000297398, 0.00075051, 0.00140604]
      Line search terminated: lambda = 1., fnorms = 0.000297398
  3 SNES Function norm 2.973977492045e-04 
  3 MMFD   ||F||/||F0||=7.302786e-03 
    Residual norms for js_ solve.
    0 KSP Residual norm 2.973977492045e-04 
    1 KSP Residual norm 1.132775723957e-04 
    2 KSP Residual norm 3.362972995829e-05 
  Linear js_ solve converged due to CONVERGED_RTOL iterations 2
      Line search: lambdas = [1., 0.5, 0.], fnorms = [6.1128e-05, 0.000154489, 0.000297398]
      Line search terminated: lambda = 0.976443, fnorms = 6.07027e-05
  4 SNES Function norm 6.070271235801e-05 
--------------------------------------------------------------------------
SNES Convergence Reason : ||F|| < atol 
Number of iterations    : 4
SNES solution time      : 5.61816 (sec)
--------------------------------------------------------------------------
Residual summary: 
   Continuity: 
      |Div|_inf = 6.644034661281e-07 
      |Div|_2   = 1.668402254303e-06 
   Momentum: 
      |mRes|_2  = 6.067978017047e-05 
--------------------------------------------------------------------------
Actual time step : 0.00285 [Myr] 
--------------------------------------------------------------------------
Performing marker control (subgrid algorithm)
Marker control [0]: (subgrid) cloned 0 markers and merged 0 markers in 1.0536e-02 s
--------------------------------------------------------------------------
Saving output ... done (0.118673 sec)
--------------------------------------------------------------------------
================================ STEP 13 =================================
--------------------------------------------------------------------------
Current time        : 0.02138 [Myr] 
Tentative time step : 0.00314 [Myr] 
--------------------------------------------------------------------------
  0 SNES Function norm 3.808548474922e-02 
  0 PICARD ||F||/||F0||=1.000000e+00 
    Residual norms for js_ solve.
    0 KSP Residual norm 3.808548474922e-02 
    1 KSP Residual norm 3.175530003765e-04 
  Linear js_ solve converged due to CONVERGED_RTOL iterations 1
      Line search: lambdas = [1., 0.5, 0.], fnorms = [0.00306834, 0.018734, 0.0380855]
      Line search terminated: lambda = 0.975297, fnorms = 0.00291515
  1 SNES Function norm 2.915149349297e-03 
  1 PICARD ||F||/||F0||=7.654227e-02 
    Residual norms for js_ solve.
    0 KSP Residual norm 2.915149349297e-03 
    1 KSP Residual norm 3.587176452591e-05 
  Linear js_ solve converged due to CONVERGED_RTOL iterations 1
      Line search: lambdas = [1., 0.5, 0.], fnorms = [0.00127273, 0.00205063, 0.00291515]
      Line search terminated: lambda = 1., fnorms = 0.00127274
  2 SNES Function norm 1.272735499017e-03 
  2 MMFD   ||F||/||F0||=3.341786e-02 
    Residual norms for js_ solve.
    0 KSP Residual norm 1.272735499017e-03 
    1 KSP Residual norm 3.069966247751e-04 
  Linear js_ solve converged due to CONVERGED_RTOL iterations 1
      Line search: lambdas = [1., 0.5, 0.], fnorms = [0.000281554, 0.000688644, 0.00127274]
      Line search terminated: lambda = 1., fnorms = 0.000281555
  3 SNES Function norm 2.815549693853e-04 
  3 MMFD   ||F||/||F0||=7.392711e-03 
    Residual norms for js_ solve.
    0 KSP Residual norm 2.815549693853e-04 
    1 KSP Residual norm 1.096353838122e-04 
    2 KSP Residual norm 2.960700218148e-05 
  Linear js_ solve converged due to CONVERGED_RTOL iterations 2
      Line search: lambdas = [1., 0.5, 0.], fnorms = [5.07624e-05, 0.000145111, 0.000281555]
      Line search terminated: lambda = 0.982541, fnorms = 5.05041e-05
  4 SNES Function norm 5.050409183513e-05 
--------------------------------------------------------------------------
SNES Convergence Reason : ||F|| < atol 
Number of iterations    : 4
SNES solution time      : 5.61941 (sec)
--------------------------------------------------------------------------
Residual summary: 
   Continuity: 
      |Div|_inf = 6.645273036724e-07 
      |Div|_2   = 1.704849966457e-06 
   Momentum: 
      |mRes|_2  = 5.047530860414e-05 
--------------------------------------------------------------------------
Actual time step : 0.00314 [Myr] 
--------------------------------------------------------------------------
Performing marker control (subgrid algorithm)
Marker control [0]: (subgrid) cloned 0 markers and merged 0 markers in 1.0549e-02 s
--------------------------------------------------------------------------
Saving output ... done (0.104008 sec)
--------------------------------------------------------------------------
================================ STEP 14 =================================
--------------------------------------------------------------------------
Current time        : 0.02452 [Myr] 
Tentative time step : 0.00345 [Myr] 
--------------------------------------------------------------------------
  0 SNES Function norm 3.584351853943e-02 
  0 PICARD ||F||/||F0||=1.000000e+00 
    Residual norms for js_ solve.
    0 KSP Residual norm 3.584351853943e-02 
    1 KSP Residual norm 2.989413096639e-04 
  Linear js_ solve converged due to CONVERGED_RTOL iterations 1
      Line search: lambdas = [1., 0.5, 0.], fnorms = [0.00290977, 0.0176298, 0.0358435]
      Line search terminated: lambda = 0.975088, fnorms = 0.00276386
  1 SNES Function norm 2.763863072982e-03 
  1 PICARD ||F||/||F0||=7.710915e-02 
    Residual norms for js_ solve.
    0 KSP Residual norm 2.763863072982e-03 
    1 KSP Residual norm 3.480566468111e-05 
  Linear js_ solve converged due to CONVERGED_RTOL iterations 1
      Line search: lambdas = [1., 0.5, 0.], fnorms = [0.001177, 0.00192951, 0.00276386]
      Line search terminated: lambda = 1., fnorms = 0.00117701
  2 SNES Function norm 1.177005093261e-03 
  2 MMFD   ||F||/||F0||=3.283732e-02 
    Residual norms for js_ solve.
    0 KSP Residual norm 1.177005093261e-03 
    1 KSP Residual norm 2.870326549765e-04 
  Linear js_ solve converged due to CONVERGED_RTOL iterations 1
      Line search: lambdas = [1., 0.5, 0.], fnorms = [0.000269497, 0.000632148, 0.00117701]
      Line search terminated: lambda = 0.998185, fnorms = 0.000269465
  3 SNES Function norm 2.694653984980e-04 
  3 MMFD   ||F||/||F0||=7.517828e-03 
    Residual norms for js_ solve.
    0 KSP Residual norm 2.694653984980e-04 
    1 KSP Residual norm 1.074305475016e-04 
    2 KSP Residual norm 2.939404406123e-05 
    3 KSP Residual norm 6.416979266124e-06 
  Linear js_ solve converged due to CONVERGED_ATOL iterations 3
      Line search: lambdas = [1., 0.5, 0.], fnorms = [3.28902e-05, 0.000136335, 0.000269465]
      Line search terminated: lambda = 0.989677, fnorms = 3.27631e-05
  4 SNES Function norm 3.276309966160e-05 
--------------------------------------------------------------------------
SNES Convergence Reason : ||F|| < atol 
Number of iterations    : 4
SNES solution time      : 5.61817 (sec)
--------------------------------------------------------------------------
Residual summary: 
   Continuity: 
      |Div|_inf = 2.193234889378e-07 
      |Div|_2   = 5.989918356365e-07 
   Momentum: 
      |mRes|_2  = 3.275762366560e-05 
--------------------------------------------------------------------------
Actual time step : 0.00345 [Myr] 
--------------------------------------------------------------------------
Performing marker control (subgrid algorithm)
Marker control [0]: (subgrid) cloned 0 markers and merged 0 markers in 1.0616e-02 s
--------------------------------------------------------------------------
Saving output ... done (0.105438 sec)
--------------------------------------------------------------------------
================================ STEP 15 =================================
--------------------------------------------------------------------------
Current time        : 0.02797 [Myr] 
Tentative time step : 0.00380 [Myr] 
--------------------------------------------------------------------------
  0 SNES Function norm 3.389426523800e-02 
  0 PICARD ||F||/||F0||=1.000000e+00 
    Residual norms for js_ solve.
    0 KSP Residual norm 3.389426523800e-02 
    1 KSP Residual norm 2.819739522855e-04 
  Linear js_ solve converged due to CONVERGED_RTOL iterations 1
      Line search: lambdas = [1., 0.5, 0.], fnorms = [0.00273684, 0.0166792, 0.0338943]
      Line search terminated: lambda = 0.975618, fnorms = 0.00260415
  1 SNES Function norm 2.604153775720e-03 
  1 PICARD ||F||/||F0||=7.683169e-02 
    Residual norms for js_ solve.
    0 KSP Residual norm 2.604153775720e-03 
    1 KSP Residual norm 3.384654346089e-05 
  Linear js_ solve converged due to CONVERGED_RTOL iterations 1
      Line search: lambdas = [1., 0.5, 0.], fnorms = [0.00107502, 0.00180056, 0.00260415]
      Line search terminated: lambda = 1., fnorms = 0.00107502
  2 SNES Function norm 1.075019920209e-03 
  2 MMFD   ||F||/||F0||=3.171687e-02 
    Residual norms for js_ solve.
    0 KSP Residual norm 1.075019920209e-03 
    1 KSP Residual norm 2.679418473734e-04 
    2 KSP Residual norm 8.782951054604e-05 
  Linear js_ solve converged due to CONVERGED_RTOL iterations 2
      Line search: lambdas = [1., 0.5, 0.], fnorms = [0.000127891, 0.00054294, 0.00107502]
      Line search terminated: lambda = 0.989012, fnorms = 0.000127012
  3 SNES Function norm 1.270124037541e-04 
  3 MMFD   ||F||/||F0||=3.747312e-03 
    Residual norms for js_ solve.
    0 KSP Residual norm 1.270124037541e-04 
    1 KSP Residual norm 2.784144136126e-05 
    2 KSP Residual norm 8.354492305809e-06 
  Linear js_ solve converged due to CONVERGED_ATOL iterations 2
      Line search: lambdas = [1., 0.5, 0.], fnorms = [1.09601e-05, 6.41042e-05, 0.000127012]
      Line search terminated: lambda = 0.998285, fnorms = 1.0955e-05
  4 SNES Function norm 1.095501104348e-05 
--------------------------------------------------------------------------
SNES Convergence Reason : ||F|| < atol 
Number of iterations    : 4
SNES solution time      : 5.74526 (sec)
--------------------------------------------------------------------------
Residual summary: 
   Continuity: 
      |Div|_inf = 1.672921316839e-07 
      |Div|_2   = 4.187342894666e-07 
   Momentum: 
      |mRes|_2  = 1.094700546074e-05 
--------------------------------------------------------------------------
Actual time step : 0.00380 [Myr] 
--------------------------------------------------------------------------
Performing marker control (subgrid algorithm)
Marker control [0]: (subgrid) cloned 0 markers and merged 0 markers in 1.0535e-02 s
--------------------------------------------------------------------------
Saving output ... done (0.103953 sec)
--------------------------------------------------------------------------
================================ STEP 16 =================================
--------------------------------------------------------------------------
Current time        : 0.03177 [Myr] 
Tentative time step : 0.00418 [Myr] 
--------------------------------------------------------------------------
  0 SNES Function norm 3.166529273591e-02 
  0 PICARD ||F||/||F0||=1.000000e+00 
    Residual norms for js_ solve.
    0 KSP Residual norm 3.166529273591e-02 
    1 KSP Residual norm 2.670418327378e-04 
  Linear js_ solve converged due to CONVERGED_RTOL iterations 1
      Line search: lambdas = [1., 0.5, 0.], fnorms = [0.00261838, 0.0155912, 0.0316653]
      Line search terminated: lambda = 0.975679, fnorms = 0.00249806
  1 SNES Function norm 2.498060708077e-03 
  1 PICARD ||F||/||F0||=7.888955e-02 
    Residual norms for js_ solve.
    0 KSP Residual norm 2.498060708077e-03 
    1 KSP Residual norm 3.300487846301e-05 
  Linear js_ solve converged due to CONVERGED_RTOL iterations 1
      Line search: lambdas = [1., 0.5, 0.], fnorms = [0.00101471, 0.00171924, 0.00249806]
      Line search terminated: lambda = 1., fnorms = 0.00101472
  2 SNES Function norm 1.014715763587e-03 
  2 MMFD   ||F||/||F0||=3.204505e-02 
    Residual norms for js_ solve.
    0 KSP Residual norm 1.014715763587e-03 
    1 KSP Residual norm 2.647311682836e-04 
    2 KSP Residual norm 9.570936527564e-05 
  Linear js_ solve converged due to CONVERGED_RTOL iterations 2
      Line search: lambdas = [1., 0.5, 0.], fnorms = [0.00016428, 0.000515247, 0.00101472]
      Line search terminated: lambda = 0.976841, fnorms = 0.000162138
  3 SNES Function norm 1.621379675296e-04 
  3 MMFD   ||F||/||F0||=5.120369e-03 
    Residual norms for js_ solve.
    0 KSP Residual norm 1.621379675296e-04 
    1 KSP Residual norm 3.693605575632e-05 
    2 KSP Residual norm 9.722227802614e-06 
  Linear js_ solve converged due to CONVERGED_ATOL iterations 2
      Line search: lambdas = [1., 0.5, 0.], fnorms = [1.17793e-05, 8.13225e-05, 0.000162138]
      Line search terminated: lambda = 0.995236, fnorms = 1.17765e-05
  4 SNES Function norm 1.177649128774e-05 
--------------------------------------------------------------------------
SNES Convergence Reason : ||F|| < atol 
Number of iterations    : 4
SNES solution time      : 5.69833 (sec)
--------------------------------------------------------------------------
Residual summary: 
   Continuity: 
      |Div|_inf = 1.500309089446e-07 
      |Div|_2   = 3.938632035629e-07 
   Momentum: 
      |mRes|_2  = 1.176990309336e-05 
--------------------------------------------------------------------------
Actual time step : 0.00418 [Myr] 
--------------------------------------------------------------------------
Performing marker control (subgrid algorithm)
Marker control [0]: (subgrid) cloned 0 markers and merged 0 markers in 1.0622e-02 s
--------------------------------------------------------------------------
Saving output ... done (0.104811 sec)
--------------------------------------------------------------------------
================================ STEP 17 =================================
--------------------------------------------------------------------------
Current time        : 0.03595 [Myr] 
Tentative time step : 0.00459 [Myr] 
--------------------------------------------------------------------------
  0 SNES Function norm 3.034185587989e-02 
  0 PICARD ||F||/||F0||=1.000000e+00 
    Residual norms for js_ solve.
    0 KSP Residual norm 3.034185587989e-02 
    1 KSP Residual norm 2.525866171107e-04 
  Linear js_ solve converged due to CONVERGED_RTOL iterations 1
      Line search: lambdas = [1., 0.5, 0.], fnorms = [0.00254164, 0.0149486, 0.0303419]
      Line search terminated: lambda = 0.975966, fnorms = 0.00243084
  1 SNES Function norm 2.430838905700e-03 
  1 PICARD ||F||/||F0||=8.011504e-02 
    Residual norms for js_ solve.
    0 KSP Residual norm 2.430838905700e-03 
    1 KSP Residual norm 3.203733360707e-05 
  Linear js_ solve converged due to CONVERGED_RTOL iterations 1
      Line search: lambdas = [1., 0.5, 0.], fnorms = [0.000974002, 0.00166636, 0.00243084]
      Line search terminated: lambda = 1., fnorms = 0.000974005
  2 SNES Function norm 9.740045359074e-04 
  2 MMFD   ||F||/||F0||=3.210102e-02 
    Residual norms for js_ solve.
    0 KSP Residual norm 9.740045359074e-04 
    1 KSP Residual norm 2.403299903931e-04 
    2 KSP Residual norm 7.877139276001e-05 
  Linear js_ solve converged due to CONVERGED_RTOL iterations 2
      Line search: lambdas = [1., 0.5, 0.], fnorms = [0.000106814, 0.000490694, 0.000974005]
      Line search terminated: lambda = 0.98966, fnorms = 0.000106083
  3 SNES Function norm 1.060830752372e-04 
  3 MMFD   ||F||/||F0||=3.496262e-03 
    Residual norms for js_ solve.
    0 KSP Residual norm 1.060830752372e-04 
    1 KSP Residual norm 2.411664999938e-05 
    2 KSP Residual norm 7.196220566934e-06 
  Linear js_ solve converged due to CONVERGED_ATOL iterations 2
      Line search: lambdas = [1., 0.5, 0.], fnorms = [9.41562e-06, 5.34916e-05, 0.000106083]
      Line search terminated: lambda = 0.996701, fnorms = 9.41225e-06
  4 SNES Function norm 9.412249299457e-06 
--------------------------------------------------------------------------
SNES Convergence Reason : ||F|| < atol 
Number of iterations    : 4
SNES solution time      : 5.57839 (sec)
--------------------------------------------------------------------------
Residual summary: 
   Continuity: 
      |Div|_inf = 1.230496485726e-07 
      |Div|_2   = 3.175946425214e-07 
   Momentum: 
      |mRes|_2  = 9.406889524076e-06 
--------------------------------------------------------------------------
Actual time step : 0.00459 [Myr] 
--------------------------------------------------------------------------
Performing marker control (subgrid algorithm)
Marker control [0]: (subgrid) cloned 0 markers and merged 0 markers in 1.0571e-02 s
--------------------------------------------------------------------------
Saving output ... done (0.103619 sec)
--------------------------------------------------------------------------
================================ STEP 18 =================================
--------------------------------------------------------------------------
Current time        : 0.04054 [Myr] 
Tentative time step : 0.00505 [Myr] 
--------------------------------------------------------------------------
  0 SNES Function norm 2.863067054378e-02 
  0 PICARD ||F||/||F0||=1.000000e+00 
    Residual norms for js_ solve.
    0 KSP Residual norm 2.863067054378e-02 
    1 KSP Residual norm 2.392590048689e-04 
  Linear js_ solve converged due to CONVERGED_RTOL iterations 1
      Line search: lambdas = [1., 0.5, 0.], fnorms = [0.00241168, 0.0141333, 0.0286307]
      Line search terminated: lambda = 0.977603, fnorms = 0.0023221
  1 SNES Function norm 2.322095809634e-03 
  1 PICARD ||F||/||F0||=8.110518e-02 
    Residual norms for js_ solve.
    0 KSP Residual norm 2.322095809634e-03 
    1 KSP Residual norm 3.091053703316e-05 
  Linear js_ solve converged due to CONVERGED_RTOL iterations 1
      Line search: lambdas = [1., 0.5, 0.], fnorms = [0.00090893, 0.00158041, 0.0023221]
      Line search terminated: lambda = 1., fnorms = 0.000908932
  2 SNES Function norm 9.089323322379e-04 
  2 MMFD   ||F||/||F0||=3.174681e-02 
    Residual norms for js_ solve.
    0 KSP Residual norm 9.089323322379e-04 
    1 KSP Residual norm 2.376112785687e-04 
    2 KSP Residual norm 7.884302952442e-05 
  Linear js_ solve converged due to CONVERGED_RTOL iterations 2
      Line search: lambdas = [1., 0.5, 0.], fnorms = [0.000128407, 0.000461102, 0.000908932]
      Line search terminated: lambda = 0.984929, fnorms = 0.000127445
  3 SNES Function norm 1.274451108021e-04 
  3 MMFD   ||F||/||F0||=4.451349e-03 
    Residual norms for js_ solve.
    0 KSP Residual norm 1.274451108021e-04 
    1 KSP Residual norm 2.879315640300e-05 
    2 KSP Residual norm 7.444278043106e-06 
  Linear js_ solve converged due to CONVERGED_ATOL iterations 2
      Line search: lambdas = [1., 0.5, 0.], fnorms = [9.16266e-06, 6.40907e-05, 0.000127445]
      Line search terminated: lambda = 0.998038, fnorms = 9.15505e-06
  4 SNES Function norm 9.155046748790e-06 
--------------------------------------------------------------------------
SNES Convergence Reason : ||F|| < atol 
Number of iterations    : 4
SNES solution time      : 5.52905 (sec)
--------------------------------------------------------------------------
Residual summary: 
   Continuity: 
      |Div|_inf = 1.109457400054e-07 
      |Div|_2   = 2.636974796132e-07 
   Momentum: 
      |mRes|_2  = 9.151248254297e-06 
--------------------------------------------------------------------------
Actual time step : 0.00505 [Myr] 
--------------------------------------------------------------------------
Performing marker control (subgrid algorithm)
Marker control [0]: (subgrid) cloned 0 markers and merged 0 markers in 1.0576e-02 s
--------------------------------------------------------------------------
Saving output ... done (0.105 sec)
--------------------------------------------------------------------------
================================ STEP 19 =================================
--------------------------------------------------------------------------
Current time        : 0.04560 [Myr] 
Tentative time step : 0.00556 [Myr] 
--------------------------------------------------------------------------
  0 SNES Function norm 2.758138934186e-02 
  0 PICARD ||F||/||F0||=1.000000e+00 
    Residual norms for js_ solve.
    0 KSP Residual norm 2.758138934186e-02 
    1 KSP Residual norm 2.264473220092e-04 
  Linear js_ solve converged due to CONVERGED_RTOL iterations 1
      Line search: lambdas = [1., 0.5, 0.], fnorms = [0.00232615, 0.0136397, 0.0275814]
      Line search terminated: lambda = 0.979191, fnorms = 0.0022524
  1 SNES Function norm 2.252401491336e-03 
  1 PICARD ||F||/||F0||=8.166382e-02 
    Residual norms for js_ solve.
    0 KSP Residual norm 2.252401491336e-03 
    1 KSP Residual norm 2.967192127812e-05 
  Linear js_ solve converged due to CONVERGED_RTOL iterations 1
      Line search: lambdas = [1., 0.5, 0.], fnorms = [0.00087637, 0.00153058, 0.0022524]
      Line search terminated: lambda = 1., fnorms = 0.000876371
  2 SNES Function norm 8.763714981856e-04 
  2 MMFD   ||F||/||F0||=3.177402e-02 
    Residual norms for js_ solve.
    0 KSP Residual norm 8.763714981856e-04 
    1 KSP Residual norm 2.191107155623e-04 
    2 KSP Residual norm 6.796558920914e-05 
  Linear js_ solve converged due to CONVERGED_RTOL iterations 2
      Line search: lambdas = [1., 0.5, 0.], fnorms = [9.90292e-05, 0.000440611, 0.000876371]
      Line search terminated: lambda = 0.98659, fnorms = 9.80901e-05
  3 SNES Function norm 9.809007991096e-05 
--------------------------------------------------------------------------
SNES Convergence Reason : ||F|| < atol 
Number of iterations    : 3
SNES solution time      : 4.17568 (sec)
--------------------------------------------------------------------------
Residual summary: 
   Continuity: 
      |Div|_inf = 5.103243814239e-07 
      |Div|_2   = 2.984981447729e-06 
   Momentum: 
      |mRes|_2  = 9.804465137219e-05 
--------------------------------------------------------------------------
Actual time step : 0.00556 [Myr] 
--------------------------------------------------------------------------
Performing marker control (subgrid algorithm)
Marker control [0]: (subgrid) cloned 0 markers and merged 0 markers in 1.0545e-02 s
--------------------------------------------------------------------------
Saving output ... done (0.10467 sec)
--------------------------------------------------------------------------
================================ STEP 20 =================================
--------------------------------------------------------------------------
Current time        : 0.05116 [Myr] 
Tentative time step : 0.00612 [Myr] 
--------------------------------------------------------------------------
  0 SNES Function norm 2.682140470775e-02 
  0 PICARD ||F||/||F0||=1.000000e+00 
    Residual norms for js_ solve.
    0 KSP Residual norm 2.682140470775e-02 
    1 KSP Residual norm 2.144437065895e-04 
  Linear js_ solve converged due to CONVERGED_RTOL iterations 1
      Line search: lambdas = [1., 0.5, 0.], fnorms = [0.00220608, 0.0132857, 0.0268214]
      Line search terminated: lambda = 0.98118, fnorms = 0.00214696
  1 SNES Function norm 2.146960570003e-03 
  1 PICARD ||F||/||F0||=8.004654e-02 
    Residual norms for js_ solve.
    0 KSP Residual norm 2.146960570003e-03 
    1 KSP Residual norm 2.875560135675e-05 
  Linear js_ solve converged due to CONVERGED_RTOL iterations 1
      Line search: lambdas = [1., 0.5, 0.], fnorms = [0.000838186, 0.00145848, 0.00214696]
      Line search terminated: lambda = 1., fnorms = 0.000838187
  2 SNES Function norm 8.381874327874e-04 
  2 MMFD   ||F||/||F0||=3.125069e-02 
    Residual norms for js_ solve.
    0 KSP Residual norm 8.381874327874e-04 
    1 KSP Residual norm 2.072534046634e-04 
    2 KSP Residual norm 6.409997822634e-05 
  Linear js_ solve converged due to CONVERGED_RTOL iterations 2
      Line search: lambdas = [1., 0.5, 0.], fnorms = [0.000100964, 0.000422629, 0.000838187]
      Line search terminated: lambda = 0.986865, fnorms = 0.00010012
  3 SNES Function norm 1.001203903109e-04 
  3 MMFD   ||F||/||F0||=3.732854e-03 
    Residual norms for js_ solve.
    0 KSP Residual norm 1.001203903109e-04 
    1 KSP Residual norm 2.534564250755e-05 
    2 KSP Residual norm 6.365754752728e-06 
  Linear js_ solve converged due to CONVERGED_ATOL iterations 2
      Line search: lambdas = [1., 0.5, 0.], fnorms = [7.9844e-06, 5.05539e-05, 0.00010012]
      Line search terminated: lambda = 1., fnorms = 7.98443e-06
  4 SNES Function norm 7.984428624270e-06 
--------------------------------------------------------------------------
SNES Convergence Reason : ||F|| < atol 
Number of iterations    : 4
SNES solution time      : 5.63579 (sec)
--------------------------------------------------------------------------
Residual summary: 
   Continuity: 
      |Div|_inf = 7.398586252744e-08 
      |Div|_2   = 2.205487967926e-07 
   Momentum: 
      |mRes|_2  = 7.981382003407e-06 
--------------------------------------------------------------------------
Actual time step : 0.00612 [Myr] 
--------------------------------------------------------------------------
Performing marker control (subgrid algorithm)
Marker control [0]: (subgrid) cloned 0 markers and merged 0 markers in 1.0598e-02 s
--------------------------------------------------------------------------
Saving output ... done (0.104449 sec)
--------------------------------------------------------------------------
=========================== SOLUTION IS DONE! ============================
--------------------------------------------------------------------------
Total solution time : 129.807 (sec) 
--------------------------------------------------------------------------

